{{- (dict
  "date" .Date.UnixMilli
  "date_iso" .Date
  "Contributors" .Params.contributors
  "layout_type" .Type
  "permalink" .Permalink
  "permalink_json" (printf "%sindex.json" .Permalink)
  "rel_permalink" .RelPermalink
  "rel_permalink_json" (printf "%sindex.json" .RelPermalink)
  "summary" .Summary
  "resource_type" .ResourceType
  "media_type" .MediaType.Type
  "kind" .Kind
  "slug" .Slug
  "section" .Section
  "language" .Language.Lang
  "weight" .Weight
) | jsonify -}}

