digraph hierarchy {
  nodesep=1.5
  fontname="Helvetica,Arial,sans-serif"
  ranksep=1;

  node [shape=box;style=filled;color="#b20100" fillcolor="#edd5d5"]

  "New User" -> Python[color="#b22800"];
  "Python" -> Space[style=dashed;color="#b22800"];
  "Python" -> "Meta" [style=dashed;color="#b22800"];
  "Python" -> "Off-Topic" [style=dashed;color="#b22800"];
  {rank=same;Space;Python}
  Space [fillcolor="#99ccff";color="#0066ff"]
  "New User" [fillcolor="#99ff99";color="#009933"]
}
